Better Data Cleaning using R and the Tidyverse
…
## Example of Boundary Constraints

Dplyr has a `between()` function which can be helpful when used in conjunction with the negation operator `!`

```r
# What if we were to assume that any height larger than 300cm is abnormally large?
data_superhero %>% 
* filter(!between(x = height,
                 left = 0,
                 right = 300))
```

```
## # A tibble: 225 x 11
##       id name  gender eye_color race  hair_color height publisher
##    <dbl> <chr> <chr>  <chr>     <chr> <chr>       <dbl> <chr>    
##  1     4 Abra~ Male   blue      Cosm~ Black         -99 Marvel C~
##  2     6 Adam~ Male   blue      -     Blond         -99 NBC - He~
##  3    14 Alex~ Male   -         Human -             -99 Wildstorm
##  4    15 Alex~ Male   -         -     -             -99 NBC - He~
##  5    18 Alla~ Male   -         -     -             -99 Wildstorm
##  6    21 Ando~ Male   -         -     -             -99 NBC - He~
##  7    23 Angel Male   -         Vamp~ -             -99 Dark Hor~
##  8    26 Ange~ Female -         -     -             -99 Image Co~
##  9    32 Anti~ Male   -         -     -             -99 Image Co~
## 10    35 Aqua~ Male   blue      -     Blond         -99 DC Comics
## # ... with 215 more rows, and 3 more variables: skin_color <chr>,
## #   alignment <chr>, weight <dbl>
```
…
## Was the problem fixed?

```
## # A tibble: 734 x 11
##       id name  gender eye_color race  hair_color height publisher
##    <dbl> <chr> <chr>  <chr>     <chr> <chr>       <dbl> <chr>    
##  1     0 A-Bo~ Male   yellow    Human No Hair       203 Marvel C~
##  2     1 Abe ~ Male   blue      Icth~ No Hair       191 Dark Hor~
##  3     2 Abin~ Male   blue      Unga~ No Hair       185 DC Comics
##  4     3 Abom~ Male   green     Huma~ No Hair       203 Marvel C~
*##  5     4 Abra~ Male   blue      Cosm~ Black          NA Marvel C~
##  6     5 Abso~ Male   blue      Human No Hair       193 Marvel C~
*##  7     6 Adam~ Male   blue      -     Blond          NA NBC - He~
##  8     7 Adam~ Male   blue      Human Blond         185 DC Comics
##  9     8 Agen~ Female blue      -     Blond         173 Marvel C~
## 10     9 Agen~ Male   brown     Human Brown         178 Marvel C~
## # ... with 724 more rows, and 3 more variables: skin_color <chr>,
## #   alignment <chr>, weight <dbl>
```
…
## `eye_color`

Let's keep going to see what else we can discover through profiling our data .

```r
fct_count(data_superhero$eye_color) %>% 
  arrange(f) %>%
  View()
```

```
## # A tibble: 23 x 2
##    f                n
##    <fct>        <int>
##  1 amber            2
##  2 black           23
##  3 blue           225
##  4 blue / white     1
##  5 bown             1
##  6 brown          126
##  7 gold             3
##  8 green           73
##  9 green / blue     1
## 10 grey             6
## # ... with 13 more rows
```
…
```
## # A tibble: 30 x 3
##       id timepoint    score
##    <int>     <dbl>    <dbl>
##  1     1         1  0.212  
##  2     2         1 -0.00640
##  3     3         1 -0.816  
##  4     4         1  0.409  
##  5     5         1 -0.130  
##  6     6         1 -0.313  
##  7     7         1 -0.336  
##  8     8         1  0.424  
##  9     9         1 -0.891  
## 10    10         1  0.251  
## # ... with 20 more rows
```
…
Keep in mind that as long as one of the variables checked this way is completely unique, then the result will indicate that the set of variables will also be unique.

Check individual variables first.
---
class: inverse

We can also build chains of functions to look deeper into the `name` issue we just found.

```
## [1] 734
```

```
## # A tibble: 36 x 13
##       id name  gender eye_color race  hair_color height publisher
##    <dbl> <chr> <chr>  <chr>     <chr> <chr>       <dbl> <chr>    
##  1    22 Angel male   blue      <NA>  blond         183 marvel c~
##  2    23 Angel male   <NA>      vamp~ <NA>           NA dark hor~
##  3    47 Atlas male   brown     muta~ red           183 marvel c~
##  4    48 Atlas male   blue      god ~ brown         198 dc comics
##  5    49 Atom  male   blue      <NA>  red           178 dc comics
##  6    50 Atom  male   <NA>      <NA>  <NA>           NA dc comics
##  7    62 Batg~ female <NA>      <NA>  <NA>           NA dc comics
##  8    63 Batg~ female green     human red           170 dc comics
##  9    68 Batm~ male   blue      human black         188 dc comics
## 10    69 Batm~ male   blue      human black         178 dc comics
## # ... with 26 more rows, and 5 more variables: skin_color <chr>,
## #   alignment <chr>, weight <dbl>, gender_fct <fct>, alignment_fct <fct>
```

```
## # A tibble: 734 x 14
##       id name  gender eye_color race  hair_color height publisher
##    <dbl> <chr> <chr>  <chr>     <chr> <chr>       <dbl> <chr>    
##  1     0 A-Bo~ male   yellow    human no hair       203 marvel c~
##  2     1 Abe ~ male   blue      icth~ no hair       191 dark hor~
##  3     2 Abin~ male   blue      unga~ no hair       185 dc comics
##  4     3 Abom~ male   green     huma~ no hair       203 marvel c~
##  5     4 Abra~ male   blue      cosm~ black          NA marvel c~
##  6     5 Abso~ male   blue      human no hair       193 marvel c~
##  7     6 Adam~ male   blue      <NA>  blond          NA nbc - he~
##  8     7 Adam~ male   blue      human blond         185 dc comics
##  9     8 Agen~ female blue      <NA>  blond         173 marvel c~
## 10     9 Agen~ male   brown     human brown         178 marvel c~
## # ... with 724 more rows, and 6 more variables: skin_color <chr>,
## #   alignment <chr>, weight <dbl>, gender_fct <fct>, alignment_fct <fct>,
## #   n_miss_all <int>
```
…
If we want to get a tabular count of observations per grouping level, but if you have a many possible levels in your factor, then you might want to consolidate (for diagnostic or analytic purposes).

Keep in mind that the resulting levels should still have substantive meaning (if you can help it).

Take for instance, that for eye colours for superheroes are predominantly blue, green, or brown.

```r
fct_count(data_superhero$eye_color) %>% 
  arrange(desc(n))
```

```
## # A tibble: 23 x 2
##    f          n
##    <fct>  <int>
##  1 blue     225
##  2 <NA>     172
##  3 brown    126
##  4 green     73
##  5 red       46
##  6 black     23
##  7 yellow    19
##  8 white     17
##  9 grey       6
## 10 hazel      6
## # ... with 13 more rows
```
…
```
## [1] 23
```
]

.pull-right[

```r
fct_count(data_superhero$eye_color) %>% 
  arrange(desc(n))
```

```
## # A tibble: 23 x 2
##    f          n
##    <fct>  <int>
##  1 blue     225
##  2 <NA>     172
##  3 brown    126
##  4 green     73
##  5 red       46
##  6 black     23
##  7 yellow    19
##  8 white     17
##  9 grey       6
## 10 hazel      6
## # ... with 13 more rows
```

```r
data_superhero %>% 
  count(eye_color) %>% 
  arrange(desc(n))
```

```
## # A tibble: 23 x 2
##    eye_color     n
##    <chr>     <int>
##  1 blue        225
##  2 <NA>        172
##  3 brown       126
##  4 green        73
##  5 red          46
##  6 black        23
##  7 yellow       19
##  8 white        17
##  9 grey          6
## 10 hazel         6
## # ... with 13 more rows
```
…
